Introduction to readr • readr
…
The rectangular parsing functions almost always succeed; they’ll only fail if the format is severely messed up. Instead, readr will generate a data frame of problems. The first few will be printed out, and you can access them all with problems():

problems(df1)
#> # A tibble: 1,000 x 5
#>      row col   expected         actual    file                                  
#>    <int> <chr> <chr>            <chr>     <chr>                                 
#>  1  1001 y     1/0/T/F/TRUE/FA… 2015-01-… '/home/travis/R/Library/readr/extdata…
#>  2  1002 y     1/0/T/F/TRUE/FA… 2018-05-… '/home/travis/R/Library/readr/extdata…
#>  3  1003 y     1/0/T/F/TRUE/FA… 2015-09-… '/home/travis/R/Library/readr/extdata…
#>  4  1004 y     1/0/T/F/TRUE/FA… 2012-11-… '/home/travis/R/Library/readr/extdata…
#>  5  1005 y     1/0/T/F/TRUE/FA… 2020-01-… '/home/travis/R/Library/readr/extdata…
#>  6  1006 y     1/0/T/F/TRUE/FA… 2016-04-… '/home/travis/R/Library/readr/extdata…
#>  7  1007 y     1/0/T/F/TRUE/FA… 2011-05-… '/home/travis/R/Library/readr/extdata…
#>  8  1008 y     1/0/T/F/TRUE/FA… 2020-07-… '/home/travis/R/Library/readr/extdata…
#>  9  1009 y     1/0/T/F/TRUE/FA… 2011-04-… '/home/travis/R/Library/readr/extdata…
#> 10  1010 y     1/0/T/F/TRUE/FA… 2010-05-… '/home/travis/R/Library/readr/extdata…
#> # … with 990 more rows
…
