…
## See also

[`read_delim()`](https://readr.tidyverse.org/reference/read_delim.md)
for the conventional way to read rectangular data from delimited files.

## Examples

``` r
# Input sources -------------------------------------------------------------
# Read from a path
melt_csv(readr_example("mtcars.csv"))
#> Warning: `melt_csv()` was deprecated in readr 2.0.0.
#> ℹ Please use `meltr::melt_csv()` instead
#> # A tibble: 363 × 4
#>      row   col data_type value
#>    <dbl> <dbl> <chr>     <chr>
#>  1     1     1 character mpg  
#>  2     1     2 character cyl  
#>  3     1     3 character disp 
#>  4     1     4 character hp   
#>  5     1     5 character drat 
#>  6     1     6 character wt   
#>  7     1     7 character qsec 
#>  8     1     8 character vs   
#>  9     1     9 character am   
#> 10     1    10 character gear 
#> # ℹ 353 more rows
melt_csv(readr_example("mtcars.csv.zip"))
#> # A tibble: 363 × 4
#>      row   col data_type value
#>    <dbl> <dbl> <chr>     <chr>
#>  1     1     1 character mpg  
#>  2     1     2 character cyl  
#>  3     1     3 character disp 
#>  4     1     4 character hp   
#>  5     1     5 character drat 
#>  6     1     6 character wt   
#>  7     1     7 character qsec 
#>  8     1     8 character vs   
#>  9     1     9 character am   
#> 10     1    10 character gear 
#> # ℹ 353 more rows
melt_csv(readr_example("mtcars.csv.bz2"))
#> # A tibble: 363 × 4
#>      row   col data_type value
#>    <dbl> <dbl> <chr>     <chr>
#>  1     1     1 character mpg  
#>  2     1     2 character cyl  
#>  3     1     3 character disp 
#>  4     1     4 character hp   
#>  5     1     5 character drat 
#>  6     1     6 character wt   
#>  7     1     7 character qsec 
#>  8     1     8 character vs   
#>  9     1     9 character am   
#> 10     1    10 character gear 
#> # ℹ 353 more rows
…
