Melt a delimited file by chunks — melt_delim_chunked • readr
…
    See also

    Other chunked: callback,
  read_delim_chunked,
  read_lines_chunked

    Examples

# Cars with 3 gears
f <- function(x, pos) subset(x, data_type == "integer")
melt_csv_chunked(readr_example("mtcars.csv"), DataFrameCallback$new(f), chunk_size = 5)
#> # A tibble: 218 x 4
#>      row   col data_type value
#>    <dbl> <dbl> <chr>     <chr>
#>  1     2     1 integer   21   
#>  2     2     2 integer   6    
#>  3     2     3 integer   160  
#>  4     2     4 integer   110  
#>  5     2     8 integer   0    
#>  6     2     9 integer   1    
#>  7     2    10 integer   4    
#>  8     2    11 integer   4    
#>  9     3     1 integer   21   
#> 10     3     2 integer   6    
#> # ... with 208 more rows
…
