Vignette Title • readr
…
If you want to read only a subset of the columns, use cols_only():

mtcars2 <- read_csv(
  readr_example("mtcars.csv"),
  col_types = cols_only(
    mpg = col_double(),
    gear = col_integer()
  )
)
mtcars2
#> # A tibble: 32 × 2
#>      mpg  gear
#>    <dbl> <int>
#> 1   21.0     4
#> 2   21.0     4
#> 3   22.8     4
#> 4   21.4     3
#> 5   18.7     3
#> 6   18.1     3
#> 7   14.3     3
#> 8   24.4     4
#> 9   22.8     4
#> 10  19.2     4
#> # ... with 22 more rows
…
